EESchema Schematic File Version 2
LIBS:power
LIBS:device
LIBS:transistors
LIBS:conn
LIBS:linear
LIBS:regul
LIBS:74xx
LIBS:cmos4000
LIBS:adc-dac
LIBS:memory
LIBS:xilinx
LIBS:microcontrollers
LIBS:dsp
LIBS:microchip
LIBS:analog_switches
LIBS:motorola
LIBS:texas
LIBS:intel
LIBS:audio
LIBS:interface
LIBS:digital-audio
LIBS:philips
LIBS:display
LIBS:cypress
LIBS:siliconi
LIBS:opto
LIBS:atmel
LIBS:contrib
LIBS:valves
LIBS:arduino
LIBS:nrf24l01
LIBS:irm-05-5
LIBS:lm3940
LIBS:mysensors-battery-thermometer-cache
LIBS:mysensors-motion-sensor-cache
EELAYER 25 0
EELAYER END
$Descr A4 11693 8268
encoding utf-8
Sheet 1 2
Title ""
Date ""
Rev ""
Comp ""
Comment1 ""
Comment2 ""
Comment3 ""
Comment4 ""
$EndDescr
$Comp
L NRF24L01 U4
U 1 1 59907F10
P 7650 2800
F 0 "U4" H 7650 2800 60  0000 C CNN
F 1 "NRF24L01" H 7675 3500 60  0000 C CNN
F 2 "myModules:NRF24L01" H 7650 2800 60  0001 C CNN
F 3 "" H 7650 2800 60  0000 C CNN
	1    7650 2800
	-1   0    0    1   
$EndComp
$Comp
L GND #PWR01
U 1 1 59907F81
P 8200 3550
F 0 "#PWR01" H 8200 3300 50  0001 C CNN
F 1 "GND" H 8200 3400 50  0000 C CNN
F 2 "" H 8200 3550 50  0000 C CNN
F 3 "" H 8200 3550 50  0000 C CNN
	1    8200 3550
	1    0    0    -1  
$EndComp
$Comp
L GND #PWR02
U 1 1 59908427
P 3200 4350
F 0 "#PWR02" H 3200 4100 50  0001 C CNN
F 1 "GND" H 3200 4200 50  0000 C CNN
F 2 "" H 3200 4350 50  0000 C CNN
F 3 "" H 3200 4350 50  0000 C CNN
	1    3200 4350
	1    0    0    -1  
$EndComp
$Comp
L CONN_01X03 P1
U 1 1 5990877E
P 2150 4750
F 0 "P1" H 2150 4950 50  0000 C CNN
F 1 "DS18B20" V 2250 4750 50  0000 C CNN
F 2 "Pin_Headers:Pin_Header_Straight_1x03" H 2150 4750 50  0001 C CNN
F 3 "" H 2150 4750 50  0000 C CNN
	1    2150 4750
	-1   0    0    1   
$EndComp
$Comp
L GND #PWR03
U 1 1 5990878C
P 2700 4950
F 0 "#PWR03" H 2700 4700 50  0001 C CNN
F 1 "GND" H 2700 4800 50  0000 C CNN
F 2 "" H 2700 4950 50  0000 C CNN
F 3 "" H 2700 4950 50  0000 C CNN
	1    2700 4950
	1    0    0    -1  
$EndComp
$Comp
L R R1
U 1 1 599087B1
P 3050 4750
F 0 "R1" V 3130 4750 50  0000 C CNN
F 1 "4.7K" V 3050 4750 50  0000 C CNN
F 2 "Resistors_ThroughHole:Resistor_Horizontal_RM10mm" V 2980 4750 50  0001 C CNN
F 3 "" H 3050 4750 50  0000 C CNN
	1    3050 4750
	0    1    1    0   
$EndComp
$Comp
L arduino_mini U1
U 1 1 5992F159
P 4750 3600
F 0 "U1" H 4775 4150 70  0000 C CNN
F 1 "arduino_mini" H 4775 3900 70  0000 C CNN
F 2 "myMicroControllers:Arduino-mini" H 4750 4700 60  0001 C CNN
F 3 "" H 5075 3100 60  0000 C CNN
	1    4750 3600
	-1   0    0    1   
$EndComp
Wire Wire Line
	4150 6250 5100 6250
Wire Wire Line
	6000 3600 5800 3600
Wire Wire Line
	6000 4650 6000 3600
Connection ~ 3300 4650
Wire Wire Line
	3300 4750 3300 4650
Wire Wire Line
	3200 4750 3300 4750
Connection ~ 2700 4750
Wire Wire Line
	2700 4850 2700 4950
Wire Wire Line
	2350 4850 2700 4850
Wire Wire Line
	2700 4750 2700 4600
Wire Wire Line
	2350 4750 2900 4750
Wire Wire Line
	2350 4650 6000 4650
Wire Wire Line
	3500 3750 3500 3900
Wire Wire Line
	3200 3750 3200 4350
Wire Wire Line
	3200 4200 3750 4200
Wire Wire Line
	3500 3900 3750 3900
Wire Wire Line
	6400 3750 5800 3750
Wire Wire Line
	6400 2900 6400 3750
Wire Wire Line
	7150 2900 6400 2900
Wire Wire Line
	8200 2900 8200 2250
Wire Wire Line
	8100 2900 8200 2900
Wire Wire Line
	7150 3050 6550 3050
Wire Wire Line
	8250 3050 8100 3050
Wire Wire Line
	6500 2850 5800 2850
Wire Wire Line
	6500 2850 6500 3200
Wire Wire Line
	6500 3200 7150 3200
Wire Wire Line
	6450 3000 5800 3000
Wire Wire Line
	6450 2550 6450 3000
Wire Wire Line
	8300 2550 6450 2550
Wire Wire Line
	8300 3200 8300 2550
Wire Wire Line
	8100 3200 8300 3200
Wire Wire Line
	7000 3350 7150 3350
Wire Wire Line
	8200 3350 8200 3550
Wire Wire Line
	8100 3350 8200 3350
Wire Wire Line
	8200 2250 3600 2250
Wire Wire Line
	3600 2250 3600 3000
Wire Wire Line
	3600 3000 3750 3000
Wire Wire Line
	6550 3050 6550 2200
Wire Wire Line
	6550 2200 3550 2200
Wire Wire Line
	3550 2200 3550 2850
Wire Wire Line
	3550 2850 3750 2850
Wire Wire Line
	8250 3050 8250 2150
Wire Wire Line
	8250 2150 3500 2150
Wire Wire Line
	3500 2150 3500 3150
Wire Wire Line
	3500 3150 3750 3150
$Comp
L LM2931AZ-3.3/5.0 U2
U 1 1 5AB60665
P 4400 5800
F 0 "U2" H 4400 6100 50  0000 C CNN
F 1 "LM2936-3.3" H 4400 6000 50  0000 C CNN
F 2 "TO_SOT_Packages_THT:TO-92_Inline_Wide" H 4400 5900 50  0001 C CIN
F 3 "" H 4400 5800 50  0000 C CNN
	1    4400 5800
	1    0    0    -1  
$EndComp
Wire Wire Line
	4400 6050 4400 6250
$Comp
L CP C1
U 1 1 5AB60BD4
P 5100 6000
F 0 "C1" H 5125 6100 50  0000 L CNN
F 1 "10µF 6.3V" H 5125 5900 50  0000 L CNN
F 2 "Capacitors_ThroughHole:C_Radial_D5_L11_P2" H 5138 5850 50  0001 C CNN
F 3 "" H 5100 6000 50  0000 C CNN
	1    5100 6000
	1    0    0    -1  
$EndComp
$Comp
L GND #PWR04
U 1 1 5AB60C12
P 5100 6350
F 0 "#PWR04" H 5100 6100 50  0001 C CNN
F 1 "GND" H 5100 6200 50  0000 C CNN
F 2 "" H 5100 6350 50  0000 C CNN
F 3 "" H 5100 6350 50  0000 C CNN
	1    5100 6350
	1    0    0    -1  
$EndComp
Wire Wire Line
	5100 6150 5100 6350
Wire Wire Line
	5100 5650 5100 5850
Connection ~ 5100 5750
Connection ~ 4400 6250
Connection ~ 5100 6250
$Comp
L +3.3V #PWR05
U 1 1 5AB63038
P 3500 3750
F 0 "#PWR05" H 3500 3600 50  0001 C CNN
F 1 "+3.3V" H 3500 3890 50  0000 C CNN
F 2 "" H 3500 3750 50  0000 C CNN
F 3 "" H 3500 3750 50  0000 C CNN
	1    3500 3750
	1    0    0    -1  
$EndComp
$Comp
L +3.3V #PWR06
U 1 1 5AB63092
P 2700 4600
F 0 "#PWR06" H 2700 4450 50  0001 C CNN
F 1 "+3.3V" H 2700 4740 50  0000 C CNN
F 2 "" H 2700 4600 50  0000 C CNN
F 3 "" H 2700 4600 50  0000 C CNN
	1    2700 4600
	1    0    0    -1  
$EndComp
$Comp
L +3.3V #PWR07
U 1 1 5AB630B8
P 5100 5650
F 0 "#PWR07" H 5100 5500 50  0001 C CNN
F 1 "+3.3V" H 5100 5790 50  0000 C CNN
F 2 "" H 5100 5650 50  0000 C CNN
F 3 "" H 5100 5650 50  0000 C CNN
	1    5100 5650
	1    0    0    -1  
$EndComp
Wire Wire Line
	4800 5750 5100 5750
$Comp
L +3.3V #PWR08
U 1 1 5AB6318C
P 7000 2800
F 0 "#PWR08" H 7000 2650 50  0001 C CNN
F 1 "+3.3V" H 7000 2940 50  0000 C CNN
F 2 "" H 7000 2800 50  0000 C CNN
F 3 "" H 7000 2800 50  0000 C CNN
	1    7000 2800
	1    0    0    -1  
$EndComp
Wire Wire Line
	7000 2800 7000 3350
$Comp
L Jumper_NC_Small JP1
U 1 1 5AB65902
P 4050 6250
F 0 "JP1" H 4050 6330 50  0000 C CNN
F 1 "Measure" H 4060 6190 50  0001 C CNN
F 2 "Pin_Headers:Pin_Header_Straight_1x02" H 4050 6250 50  0001 C CNN
F 3 "" H 4050 6250 50  0000 C CNN
	1    4050 6250
	1    0    0    -1  
$EndComp
$Comp
L R R2
U 1 1 5AB65A1F
P 3200 3000
F 0 "R2" V 3280 3000 50  0000 C CNN
F 1 "1M" V 3200 3000 50  0000 C CNN
F 2 "Resistors_ThroughHole:Resistor_Horizontal_RM10mm" V 3130 3000 50  0001 C CNN
F 3 "" H 3200 3000 50  0000 C CNN
	1    3200 3000
	-1   0    0    1   
$EndComp
$Comp
L R R3
U 1 1 5AB65A96
P 3200 3600
F 0 "R3" V 3280 3600 50  0000 C CNN
F 1 "330K" V 3200 3600 50  0000 C CNN
F 2 "Resistors_ThroughHole:Resistor_Horizontal_RM10mm" V 3130 3600 50  0001 C CNN
F 3 "" H 3200 3600 50  0000 C CNN
	1    3200 3600
	-1   0    0    1   
$EndComp
Wire Wire Line
	3200 3150 3200 3450
Wire Wire Line
	3200 3300 3750 3300
Connection ~ 3200 3300
$Comp
L +BATT #PWR09
U 1 1 5AB65BD8
P 3200 2750
F 0 "#PWR09" H 3200 2600 50  0001 C CNN
F 1 "+BATT" H 3200 2890 50  0000 C CNN
F 2 "" H 3200 2750 50  0000 C CNN
F 3 "" H 3200 2750 50  0000 C CNN
	1    3200 2750
	1    0    0    -1  
$EndComp
Wire Wire Line
	3200 2750 3200 2850
Connection ~ 3200 4200
$Comp
L Battery BT1
U 1 1 5B65117B
P 3550 6100
F 0 "BT1" V 3400 6050 50  0000 L CNN
F 1 "16340 LI-ION" V 3750 5900 50  0000 L CNN
F 2 "myBatteries:16340" V 3550 6140 50  0001 C CNN
F 3 "" V 3550 6140 50  0000 C CNN
	1    3550 6100
	0    1    1    0   
$EndComp
Wire Wire Line
	3700 5650 3700 5750
$Comp
L +BATT #PWR010
U 1 1 5B651183
P 3700 5650
F 0 "#PWR010" H 3700 5500 50  0001 C CNN
F 1 "+BATT" H 3700 5790 50  0000 C CNN
F 2 "" H 3700 5650 50  0000 C CNN
F 3 "" H 3700 5650 50  0000 C CNN
	1    3700 5650
	1    0    0    -1  
$EndComp
Wire Wire Line
	3200 6250 3950 6250
Wire Wire Line
	3200 5750 4000 5750
$Comp
L TP4056-MODULE U3
U 1 1 5B65118B
P 2650 6000
F 0 "U3" H 2550 5900 60  0000 C CNN
F 1 "TP4056-MODULE" H 2500 6000 60  0000 C CNN
F 2 "myModules:TP4056-CHARGER" H 2650 6000 60  0001 C CNN
F 3 "" H 2650 6000 60  0000 C CNN
	1    2650 6000
	1    0    0    -1  
$EndComp
Connection ~ 3700 5750
Wire Wire Line
	3200 6100 3400 6100
Wire Wire Line
	3700 6100 3800 6100
Wire Wire Line
	3800 6100 3800 5900
Wire Wire Line
	3800 5900 3200 5900
$EndSCHEMATC
